// Jest Snapshot v1, https://goo.gl/fbAQLP

exports[`Blog Post Renders Help For Invalid Id 1`] = `
<div>
  <div>
    1
    ) 
    Hello World
  </div>
  <div>
    Enter Blog Id With Command, Example 'blogs 1'
  </div>
</div>
`;

exports[`Blog Post Renders Help For Missing Id 1`] = `
<div>
  <div>
    1
    ) 
    Hello World
  </div>
  <div>
    Enter Blog Id With Command, Example 'blogs 1'
  </div>
</div>
`;

exports[`Blog Post Renders Valid Post 1`] = `
<div
  className="blogPost"
>
  <div
    className="title"
  >
    Hello World
  </div>
  <div
    className="content"
  >
    <p>
      Hey my name's Hunter Sadler and this is my first post
    </p>
  </div>
  <div
    className="date"
  >
    Hunter Sadler, 
    12/27/2017
  </div>
</div>
`;
